#
# There is insufficient memory for the Java Runtime Environment to continue.
# Native memory allocation (malloc) failed to allocate 32756 bytes for ChunkPool::allocate
# Possible reasons:
#   The system is out of physical RAM or swap space
#   In 32 bit mode, the process size limit was hit
# Possible solutions:
#   Reduce memory load on the system
#   Increase physical memory or swap space
#   Check if swap backing store is full
#   Use 64 bit Java on a 64 bit OS
#   Decrease Java heap size (-Xmx/-Xms)
#   Decrease number of Java threads
#   Decrease Java thread stack sizes (-Xss)
#   Set larger code cache with -XX:ReservedCodeCacheSize=
# This output file may be truncated or incomplete.
#
#  Out of Memory Error (allocation.cpp:273), pid=8064, tid=7768
#
# JRE version: Java(TM) SE Runtime Environment (8.0_20-b26) (build 1.8.0_20-b26)
# Java VM: Java HotSpot(TM) Client VM (25.20-b23 mixed mode windows-x86 )
# Failed to write core dump. Minidumps are not enabled by default on client versions of Windows
#

---------------  T H R E A D  ---------------

Current thread (0x4441d800):  JavaThread "C1 CompilerThread0" daemon [_thread_in_native, id=7768, stack(0x00a30000,0x00a80000)]

Stack: [0x00a30000,0x00a80000],  sp=0x00a7f1e8,  free space=316k
Native frames: (J=compiled Java code, j=interpreted, Vv=VM code, C=native code)
V  [jvm.dll+0x196ccb]
V  [jvm.dll+0x18fc98]
V  [jvm.dll+0x81289]
V  [jvm.dll+0x814ff]
V  [jvm.dll+0x8185a]
V  [jvm.dll+0x2743c8]
V  [jvm.dll+0x277a27]
V  [jvm.dll+0x27d71f]
V  [jvm.dll+0x27e026]
V  [jvm.dll+0x281fcd]
V  [jvm.dll+0x28211b]
V  [jvm.dll+0x26fda2]
V  [jvm.dll+0x26ff8b]
V  [jvm.dll+0x2700da]
V  [jvm.dll+0x270248]
V  [jvm.dll+0x2704c2]
V  [jvm.dll+0x663ba]
V  [jvm.dll+0x66a79]
V  [jvm.dll+0x168c5c]
V  [jvm.dll+0x1694ea]
V  [jvm.dll+0x1ae146]
C  [msvcr100.dll+0x5c556]
C  [msvcr100.dll+0x5c600]
C  [kernel32.dll+0x4ee6c]
C  [ntdll.dll+0x63ab3]
C  [ntdll.dll+0x63a86]
C  0x00000000


Current CompileTask:
C1:  15871 1504            
[error occurred during error reporting (printing current compile task), id 0xe0000001]


---------------  P R O C E S S  ---------------

Java Threads: ( => current thread )
  0x44425000 JavaThread "Service Thread" daemon [_thread_blocked, id=9564, stack(0x44810000,0x44860000)]
=>0x4441d800 JavaThread "C1 CompilerThread0" daemon [_thread_in_native, id=7768, stack(0x00a30000,0x00a80000)]
  0x4442a400 JavaThread "Attach Listener" daemon [_thread_blocked, id=10124, stack(0x005b0000,0x00600000)]
  0x44428400 JavaThread "Signal Dispatcher" daemon [_thread_blocked, id=10116, stack(0x44620000,0x44670000)]
  0x443df000 JavaThread "Finalizer" daemon [_thread_blocked, id=1480, stack(0x44780000,0x447d0000)]
  0x443ddc00 JavaThread "Reference Handler" daemon [_thread_blocked, id=7644, stack(0x446a0000,0x446f0000)]
  0x00bbc400 JavaThread "main" [_thread_in_Java, id=9844, stack(0x00ae0000,0x00b30000)]

Other Threads:
  0x443d9800 VMThread [stack: 0x445d0000,0x44620000] [id=9116]
  0x44426000 WatcherThread [stack: 0x44980000,0x449d0000] [id=9648]

VM state:not at safepoint (normal execution)

VM Mutex/Monitor currently owned by a thread: None

Heap:
 def new generation   total 26112K, used 11516K [0x03c00000, 0x05850000, 0x19150000)
  eden space 23232K,  49% used [0x03c00000, 0x0473f3d0, 0x052b0000)
  from space 2880K,   0% used [0x05580000, 0x05580000, 0x05850000)
  to   space 2880K,   0% used [0x052b0000, 0x052b0000, 0x05580000)
 tenured generation   total 62148K, used 58860K [0x19150000, 0x1ce01000, 0x43c00000)
   the space 62148K,  94% used [0x19150000, 0x1cacb080, 0x1cacb200, 0x1ce01000)
 Metaspace       used 3465K, capacity 3590K, committed 3648K, reserved 4480K

Card table byte_map: [0x43c00000,0x43e10000] byte_map_base: 0x43be2000

Polling page: 0x00150000

CodeCache: size=32768Kb used=3173Kb max_used=3173Kb free=29595Kb
 bounds [0x01c00000, 0x01f20000, 0x03c00000]
 total_blobs=1644 nmethods=1501 adapters=74
 compilation: enabled

Compilation events (10 events):
Event: 15.857 Thread 0x4441d800 nmethod 1499 0x01f18a88 code [0x01f18ba0, 0x01f18c78]
Event: 15.858 Thread 0x4441d800 1500             com.android.dx.dex.code.LocalList$Entry::getRegister (8 bytes)
Event: 15.858 Thread 0x4441d800 nmethod 1500 0x01f18d08 code [0x01f18e00, 0x01f18e90]
Event: 15.858 Thread 0x4441d800 1501             com.android.dx.dex.code.LocalList::get (9 bytes)
Event: 15.858 Thread 0x4441d800 nmethod 1501 0x01f18f08 code [0x01f19010, 0x01f190bc]
Event: 15.858 Thread 0x4441d800 1502             com.android.dx.rop.code.LocalItem::getSignature (5 bytes)
Event: 15.858 Thread 0x4441d800 nmethod 1502 0x01f19148 code [0x01f19240, 0x01f192c0]
Event: 15.859 Thread 0x4441d800 1503             com.android.dx.util.ByteArrayAnnotatedOutput::writeUleb128 (34 bytes)
Event: 15.859 Thread 0x4441d800 nmethod 1503 0x01f19308 code [0x01f19410, 0x01f194f8]
Event: 15.859 Thread 0x4441d800 1504             com.android.dx.dex.file.DebugInfoEncoder::emitHeader (530 bytes)

GC Heap History (10 events):
Event: 13.897 GC heap before
{Heap before GC invocations=37 (full 3):
 def new generation   total 22848K, used 22848K [0x03c00000, 0x054c0000, 0x19150000)
  eden space 20352K, 100% used [0x03c00000, 0x04fe0000, 0x04fe0000)
  from space 2496K, 100% used [0x05250000, 0x054c0000, 0x054c0000)
  to   space 2496K,   0% used [0x04fe0000, 0x04fe0000, 0x05250000)
 tenured generation   total 50628K, used 49615K [0x19150000, 0x1c2c1000, 0x43c00000)
   the space 50628K,  98% used [0x19150000, 0x1c1c3f80, 0x1c1c4000, 0x1c2c1000)
 Metaspace       used 3351K, capacity 3494K, committed 3520K, reserved 4480K
Event: 14.148 GC heap after
Heap after GC invocations=38 (full 4):
 def new generation   total 23808K, used 0K [0x03c00000, 0x055d0000, 0x19150000)
  eden space 21184K,   0% used [0x03c00000, 0x03c00000, 0x050b0000)
  from space 2624K,   0% used [0x050b0000, 0x050b0000, 0x05340000)
  to   space 2624K,   0% used [0x05340000, 0x05340000, 0x055d0000)
 tenured generation   total 52804K, used 52605K [0x19150000, 0x1c4e1000, 0x43c00000)
   the space 52804K,  99% used [0x19150000, 0x1c4af510, 0x1c4af600, 0x1c4e1000)
 Metaspace       used 3351K, capacity 3494K, committed 3520K, reserved 4480K
}
Event: 14.233 GC heap before
{Heap before GC invocations=38 (full 4):
 def new generation   total 23808K, used 21184K [0x03c00000, 0x055d0000, 0x19150000)
  eden space 21184K, 100% used [0x03c00000, 0x050b0000, 0x050b0000)
  from space 2624K,   0% used [0x050b0000, 0x050b0000, 0x05340000)
  to   space 2624K,   0% used [0x05340000, 0x05340000, 0x055d0000)
 tenured generation   total 52804K, used 52605K [0x19150000, 0x1c4e1000, 0x43c00000)
   the space 52804K,  99% used [0x19150000, 0x1c4af510, 0x1c4af600, 0x1c4e1000)
 Metaspace       used 3351K, capacity 3494K, committed 3520K, reserved 4480K
Event: 14.438 GC heap after
Heap after GC invocations=39 (full 5):
 def new generation   total 23936K, used 2605K [0x03c00000, 0x055f0000, 0x19150000)
  eden space 21312K,  12% used [0x03c00000, 0x03e8b538, 0x050d0000)
  from space 2624K,   0% used [0x050d0000, 0x050d0000, 0x05360000)
  to   space 2624K,   0% used [0x05360000, 0x05360000, 0x055f0000)
 tenured generation   total 53060K, used 53042K [0x19150000, 0x1c521000, 0x43c00000)
   the space 53060K,  99% used [0x19150000, 0x1c51ca10, 0x1c51cc00, 0x1c521000)
 Metaspace       used 3351K, capacity 3494K, committed 3520K, reserved 4480K
}
Event: 14.488 GC heap before
{Heap before GC invocations=39 (full 5):
 def new generation   total 23936K, used 21312K [0x03c00000, 0x055f0000, 0x19150000)
  eden space 21312K, 100% used [0x03c00000, 0x050d0000, 0x050d0000)
  from space 2624K,   0% used [0x050d0000, 0x050d0000, 0x05360000)
  to   space 2624K,   0% used [0x05360000, 0x05360000, 0x055f0000)
 tenured generation   total 53060K, used 53042K [0x19150000, 0x1c521000, 0x43c00000)
   the space 53060K,  99% used [0x19150000, 0x1c51ca10, 0x1c51cc00, 0x1c521000)
 Metaspace       used 3351K, capacity 3494K, committed 3520K, reserved 4480K
Event: 14.731 GC heap after
Heap after GC invocations=40 (full 6):
 def new generation   total 25088K, used 2364K [0x03c00000, 0x05730000, 0x19150000)
  eden space 22336K,  10% used [0x03c00000, 0x03e4f010, 0x051d0000)
  from space 2752K,   0% used [0x051d0000, 0x051d0000, 0x05480000)
  to   space 2752K,   0% used [0x05480000, 0x05480000, 0x05730000)
 tenured generation   total 55620K, used 55598K [0x19150000, 0x1c7a1000, 0x43c00000)
   the space 55620K,  99% used [0x19150000, 0x1c79b958, 0x1c79ba00, 0x1c7a1000)
 Metaspace       used 3351K, capacity 3494K, committed 3520K, reserved 4480K
}
Event: 14.786 GC heap before
{Heap before GC invocations=40 (full 6):
 def new generation   total 25088K, used 22336K [0x03c00000, 0x05730000, 0x19150000)
  eden space 22336K, 100% used [0x03c00000, 0x051d0000, 0x051d0000)
  from space 2752K,   0% used [0x051d0000, 0x051d0000, 0x05480000)
  to   space 2752K,   0% used [0x05480000, 0x05480000, 0x05730000)
 tenured generation   total 55620K, used 55598K [0x19150000, 0x1c7a1000, 0x43c00000)
   the space 55620K,  99% used [0x19150000, 0x1c79b958, 0x1c79ba00, 0x1c7a1000)
 Metaspace       used 3351K, capacity 3494K, committed 3520K, reserved 4480K
Event: 15.036 GC heap after
Heap after GC invocations=41 (full 7):
 def new generation   total 26112K, used 2489K [0x03c00000, 0x05850000, 0x19150000)
  eden space 23232K,  10% used [0x03c00000, 0x03e6e760, 0x052b0000)
  from space 2880K,   0% used [0x052b0000, 0x052b0000, 0x05580000)
  to   space 2880K,   0% used [0x05580000, 0x05580000, 0x05850000)
 tenured generation   total 57924K, used 57924K [0x19150000, 0x1c9e1000, 0x43c00000)
   the space 57924K, 100% used [0x19150000, 0x1c9e1000, 0x1c9e1000, 0x1c9e1000)
 Metaspace       used 3351K, capacity 3494K, committed 3520K, reserved 4480K
}
Event: 15.354 GC heap before
{Heap before GC invocations=41 (full 7):
 def new generation   total 26112K, used 23232K [0x03c00000, 0x05850000, 0x19150000)
  eden space 23232K, 100% used [0x03c00000, 0x052b0000, 0x052b0000)
  from space 2880K,   0% used [0x052b0000, 0x052b0000, 0x05580000)
  to   space 2880K,   0% used [0x05580000, 0x05580000, 0x05850000)
 tenured generation   total 57924K, used 57924K [0x19150000, 0x1c9e1000, 0x43c00000)
   the space 57924K, 100% used [0x19150000, 0x1c9e1000, 0x1c9e1000, 0x1c9e1000)
 Metaspace       used 3449K, capacity 3558K, committed 3648K, reserved 4480K
Event: 15.679 GC heap after
Heap after GC invocations=42 (full 8):
 def new generation   total 26112K, used 0K [0x03c00000, 0x05850000, 0x19150000)
  eden space 23232K,   0% used [0x03c00000, 0x03c00000, 0x052b0000)
  from space 2880K,   0% used [0x05580000, 0x05580000, 0x05850000)
  to   space 2880K,   0% used [0x052b0000, 0x052b0000, 0x05580000)
 tenured generation   total 62148K, used 58860K [0x19150000, 0x1ce01000, 0x43c00000)
   the space 62148K,  94% used [0x19150000, 0x1cacb080, 0x1cacb200, 0x1ce01000)
 Metaspace       used 3449K, capacity 3558K, committed 3648K, reserved 4480K
}

Deoptimization events (0 events):
No events

Internal exceptions (10 events):
Event: 15.301 Thread 0x00bbc400 Exception <a 'java/security/PrivilegedActionException'> (0x051354d0) thrown at [D:\re\workspace\8-2-build-windows-i586-cygwin\jdk8u20\1074\hotspot\src\share\vm\prims\jvm.cpp, line 1275]
Event: 15.301 Thread 0x00bbc400 Exception <a 'java/security/PrivilegedActionException'> (0x05139fe8) thrown at [D:\re\workspace\8-2-build-windows-i586-cygwin\jdk8u20\1074\hotspot\src\share\vm\prims\jvm.cpp, line 1275]
Event: 15.301 Thread 0x00bbc400 Exception <a 'java/security/PrivilegedActionException'> (0x0513e380) thrown at [D:\re\workspace\8-2-build-windows-i586-cygwin\jdk8u20\1074\hotspot\src\share\vm\prims\jvm.cpp, line 1275]
Event: 15.310 Thread 0x00bbc400 Exception <a 'java/security/PrivilegedActionException'> (0x0515b478) thrown at [D:\re\workspace\8-2-build-windows-i586-cygwin\jdk8u20\1074\hotspot\src\share\vm\prims\jvm.cpp, line 1275]
Event: 15.311 Thread 0x00bbc400 Exception <a 'java/security/PrivilegedActionException'> (0x0515e220) thrown at [D:\re\workspace\8-2-build-windows-i586-cygwin\jdk8u20\1074\hotspot\src\share\vm\prims\jvm.cpp, line 1275]
Event: 15.313 Thread 0x00bbc400 Exception <a 'java/security/PrivilegedActionException'> (0x051612d0) thrown at [D:\re\workspace\8-2-build-windows-i586-cygwin\jdk8u20\1074\hotspot\src\share\vm\prims\jvm.cpp, line 1275]
Event: 15.318 Thread 0x00bbc400 Exception <a 'java/security/PrivilegedActionException'> (0x05185780) thrown at [D:\re\workspace\8-2-build-windows-i586-cygwin\jdk8u20\1074\hotspot\src\share\vm\prims\jvm.cpp, line 1275]
Event: 15.853 Thread 0x00bbc400 Exception <a 'java/security/PrivilegedActionException'> (0x04684d50) thrown at [D:\re\workspace\8-2-build-windows-i586-cygwin\jdk8u20\1074\hotspot\src\share\vm\prims\jvm.cpp, line 1275]
Event: 15.854 Thread 0x00bbc400 Exception <a 'java/security/PrivilegedActionException'> (0x04690710) thrown at [D:\re\workspace\8-2-build-windows-i586-cygwin\jdk8u20\1074\hotspot\src\share\vm\prims\jvm.cpp, line 1275]
Event: 15.854 Thread 0x00bbc400 Exception <a 'java/security/PrivilegedActionException'> (0x04693068) thrown at [D:\re\workspace\8-2-build-windows-i586-cygwin\jdk8u20\1074\hotspot\src\share\vm\prims\jvm.cpp, line 1275]

Events (10 events):
Event: 15.318 loading class com/android/dx/rop/code/RegisterSpecList$Expander
Event: 15.318 loading class com/android/dx/rop/code/RegisterSpecList$Expander done
Event: 15.354 Executing VM operation: GenCollectForAllocation
Event: 15.679 Executing VM operation: GenCollectForAllocation done
Event: 15.853 loading class com/android/dx/dex/file/DebugInfoEncoder
Event: 15.853 loading class com/android/dx/dex/file/DebugInfoEncoder done
Event: 15.854 loading class com/android/dx/dex/file/DebugInfoEncoder$1
Event: 15.854 loading class com/android/dx/dex/file/DebugInfoEncoder$1 done
Event: 15.854 loading class com/android/dx/dex/file/DebugInfoEncoder$2
Event: 15.854 loading class com/android/dx/dex/file/DebugInfoEncoder$2 done


Dynamic libraries:
0x00d00000 - 0x00d30000 	C:\Program Files\Java\jdk1.8.0_20\bin\java.exe
0x77090000 - 0x771d1000 	C:\Windows\SYSTEM32\ntdll.dll
0x769c0000 - 0x76a94000 	C:\Windows\system32\kernel32.dll
0x751d0000 - 0x7521b000 	C:\Windows\system32\KERNELBASE.dll
0x76e60000 - 0x76f01000 	C:\Windows\system32\ADVAPI32.dll
0x76aa0000 - 0x76b4c000 	C:\Windows\system32\msvcrt.dll
0x76f10000 - 0x76f29000 	C:\Windows\SYSTEM32\sechost.dll
0x771e0000 - 0x77282000 	C:\Windows\system32\RPCRT4.dll
0x76ba0000 - 0x76c69000 	C:\Windows\system32\USER32.dll
0x75850000 - 0x7589e000 	C:\Windows\system32\GDI32.dll
0x76b50000 - 0x76b5a000 	C:\Windows\system32\LPK.dll
0x765c0000 - 0x7665d000 	C:\Windows\system32\USP10.dll
0x743a0000 - 0x7453e000 	C:\Windows\WinSxS\x86_microsoft.windows.common-controls_6595b64144ccf1df_6.0.7601.18837_none_41e855142bd5705d\COMCTL32.dll
0x76660000 - 0x766b7000 	C:\Windows\system32\SHLWAPI.dll
0x769a0000 - 0x769bf000 	C:\Windows\system32\IMM32.DLL
0x758a0000 - 0x7596c000 	C:\Windows\system32\MSCTF.dll
0x78950000 - 0x78a0f000 	C:\Program Files\Java\jdk1.8.0_20\jre\bin\msvcr100.dll
0x6c4b0000 - 0x6c852000 	C:\Program Files\Java\jdk1.8.0_20\jre\bin\client\jvm.dll
0x6f090000 - 0x6f097000 	C:\Windows\system32\WSOCK32.dll
0x76b60000 - 0x76b95000 	C:\Windows\system32\WS2_32.dll
0x75530000 - 0x75536000 	C:\Windows\system32\NSI.dll
0x72e30000 - 0x72e62000 	C:\Windows\system32\WINMM.dll
0x76d00000 - 0x76d05000 	C:\Windows\system32\PSAPI.DLL
0x60620000 - 0x6062c000 	C:\Program Files\Java\jdk1.8.0_20\jre\bin\verify.dll
0x605f0000 - 0x60611000 	C:\Program Files\Java\jdk1.8.0_20\jre\bin\java.dll
0x605d0000 - 0x605e3000 	C:\Program Files\Java\jdk1.8.0_20\jre\bin\zip.dll
0x75970000 - 0x765bb000 	C:\Windows\system32\SHELL32.dll
0x76f30000 - 0x7708c000 	C:\Windows\system32\ole32.dll
0x75070000 - 0x7507b000 	C:\Windows\system32\profapi.dll

VM Arguments:
jvm_args: -Djava.awt.headless=true -Xmx1024M -Dfile.encoding=windows-1251 -Duser.country=RU -Duser.language=ru -Duser.variant 
java_command: com.android.dx.command.Main --dex --num-threads=4 --output F:\aromata\BarCodeScanner\app\build\intermediates\pre-dexed\debug\com.android.support-support-v4-23.1.0_926bf410d82a6c70350ba66fd23ee42a06968923.jar F:\aromata\BarCodeScanner\app\build\intermediates\exploded-aar\com.android.support\support-v4\23.1.0\jars\classes.jar
java_class_path (initial): C:\Android\sdk\build-tools\23.0.1\lib\dx.jar
Launcher Type: SUN_STANDARD

Environment Variables:
PATH=C:\Program Files\NVIDIA Corporation\PhysX\Common;C:\WinAVR-20100110\bin;C:\WinAVR-20100110\utils\bin;C:\Program Files\Common Files\Microsoft Shared\Windows Live;C:\ProgramData\Oracle\Java\javapath;C:\Windows\system32;C:\Windows;C:\Windows\System32\Wbem;C:\Windows\System32\WindowsPowerShell\v1.0\;c:\Program Files\Microsoft SQL Server\100\Tools\Binn\VSShell\Common7\IDE\;c:\Program Files\Microsoft SQL Server\100\Tools\Binn\;c:\Program Files\Microsoft SQL Server\100\DTS\Binn\;C:\Program Files\QuickTime\QTSystem\;C:\Program Files\Windows Live\Shared;C:\Program Files\OpenVPN\bin;C:\Program Files\nodejs\;C:\Program Files\Skype\Phone\;C:\Users\mmp\AppData\Roaming\npm
USERNAME=mmp
OS=Windows_NT
PROCESSOR_IDENTIFIER=x86 Family 6 Model 23 Stepping 10, GenuineIntel



---------------  S Y S T E M  ---------------

OS: Windows 7 Build 7601 Service Pack 1

CPU:total 2 (2 cores per cpu, 1 threads per core) family 6 model 23 stepping 10, cmov, cx8, fxsr, mmx, sse, sse2, sse3, ssse3, sse4.1, tsc

Memory: 4k page, physical 3406968k(178244k free), swap 4858000k(5080k free)

vm_info: Java HotSpot(TM) Client VM (25.20-b23) for windows-x86 JRE (1.8.0_20-b26), built on Jul 30 2014 18:14:41 by "java_re" with MS VC++ 10.0 (VS2010)

time: Tue Jun 07 17:07:58 2016
elapsed time: 15 seconds (0d 0h 0m 15s)

